[
    {
        "trigger": {
            "url-filter": ".*",
            "resource-type": ["style-sheet"]
        },
        "action": {
            "type": "block"
        }
    },
    {
        "trigger": {
            "url-filter": "youtube\\.com"
        },
        "action": {
            "type": "ignore-previous-rules"
        }
    },
    {
        "trigger": {
            "url-filter": "youtube-nocookie.com"
        },
        "action": {
            "type": "ignore-previous-rules"
        }
    }
]
